{
  "software": [
    {
      "version": "tilde64",
      "ext": "7z",
      "path": ".",
      "url": "https://gitlab.com/spider-explorer/spider-software/-/raw/main/.software/busybox/busybox-tilde64.7z",
      "name": "busybox"
    },
    {
      "version": "3.1",
      "ext": "7z",
      "path": ".",
      "url": "https://gitlab.com/spider-explorer/spider-software-2/-/raw/main/bluegriffon-3.1.7z",
      "name": "bluegriffon"
    },
    {
      "version": "7.2.6-win-x64",
      "ext": "7z",
      "path": ".",
      "url": "https://gitlab.com/spider-explorer/spider-software-2/-/raw/main/PowerShell-7.2.6-win-x64.zip",
      "name": "PowerShell"
    },
    {
      "name": "grepwin",
      "version": "2.0.11",
      "ext": "7z",
      "path": ".",
      "url": "https://gitlab.com/spider-explorer/spider-software-2/-/raw/main/.software/grepwin-2.0.11.7z"
    },
    {
      "name": "idea",
      "version": "2022.2.2-222.4167.29",
      "ext": "7z",
      "path": "/IDE/bin",
      "url": "https://gitlab.com/spider-explorer/spider-software-2/-/raw/main/.software/idea-2022.2.2-222.4167.29.7z"
    },
    {
      "version": "2022.2.3-222.4167.23",
      "ext": "7z",
      "path": "/IDE/bin",
      "url": "https://gitlab.com/spider-explorer/spider-software-2/-/raw/main/rider-2022.2.3-222.4167.23.7z",
      "name": "rider"
    },
    {
      "name": "dotnet-sdk",
      "version": "6.0.401",
      "ext": "7z",
      "path": ".",
      "url": "https://gitlab.com/spider-explorer/spider-software-2/-/raw/main/.software/dotnet-sdk-6.0.401.7z"
    },
    {
      "name": "nuget",
      "version": "6.3.0",
      "ext": "7z",
      "path": ".",
      "url": "https://gitlab.com/spider-explorer/spider-software-2/-/raw/main/.software/nuget-6.3.0.7z"
    },
    {
      "name": "ilmerge",
      "version": "3.0.41",
      "ext": "7z",
      "path": ".",
      "url": "https://gitlab.com/spider-explorer/spider-software-2/-/raw/main/.software/ilmerge-3.0.41.7z"
    },
    {
      "name": "httrack",
      "version": "3.49.2",
      "ext": "7z",
      "path": ".",
      "url": "https://gitlab.com/spider-explorer/spider-software-2/-/raw/main/.software/httrack-3.49.2.7z"
    },
    {
      "name": "sumatrapdf",
      "version": "3.4.6",
      "ext": "7z",
      "path": ".",
      "url": "https://gitlab.com/spider-explorer/spider-software-2/-/raw/main/.software/sumatrapdf-3.4.6.7z"
    },
    {
      "name": "qt-creator",
      "version": "8.0.1",
      "ext": "7z",
      "path": "/bin",
      "url": "https://gitlab.com/spider-explorer/spider-software-2/-/raw/main/.software/qt-creator-8.0.1.7z"
    },
    {
      "name": "vim",
      "version": "9.0",
      "ext": "7z",
      "path": ".",
      "url": "https://gitlab.com/spider-explorer/spider-software-2/-/raw/main/.software/vim-9.0.7z"
    },
    {
      "name": "dart",
      "version": "2.18.2",
      "ext": "7z",
      "path": "/bin",
      "url": "https://gitlab.com/spider-explorer/spider-software-2/-/raw/main/.software/dart-2.18.2.7z"
    },
    {
      "name": "racket",
      "version": "8.6",
      "ext": "7z",
      "path": ".",
      "url": "https://gitlab.com/spider-explorer/spider-software-2/-/raw/main/.software/racket-8.6.7z"
    },
    {
      "name": "zig",
      "version": "0.9.1",
      "ext": "7z",
      "path": ".",
      "url": "https://gitlab.com/spider-explorer/spider-software-2/-/raw/main/.software/zig-0.9.1.7z"
    },
    {
      "name": "tidy",
      "version": "5.8.0",
      "ext": "7z",
      "path": ".",
      "url": "https://gitlab.com/spider-explorer/spider-software-2/-/raw/main/.software/tidy-5.8.0.7z"
    },
    {
      "name": "xmllint",
      "version": "2.9.3",
      "ext": "7z",
      "path": "/bin",
      "url": "https://gitlab.com/spider-explorer/spider-software-2/-/raw/main/.software/xmllint-2.9.3.7z"
    },
    {
      "name": "nodejs-lts",
      "version": "16.17.1",
      "ext": "7z",
      "path": ".",
      "url": "https://gitlab.com/spider-explorer/spider-software-2/-/raw/main/.software/nodejs-lts-16.17.1.7z"
    },
    {
      "name": "zulu17-jdk",
      "version": "17.36.17",
      "ext": "7z",
      "path": "/bin",
      "url": "https://gitlab.com/spider-explorer/spider-software-2/-/raw/main/.software/zulu17-jdk-17.36.17.7z"
    },
    {
      "name": "gradle",
      "version": "7.5.1",
      "ext": "7z",
      "path": "/bin",
      "url": "https://gitlab.com/spider-explorer/spider-software-2/-/raw/main/.software/gradle-7.5.1.7z"
    },
    {
      "name": "nu",
      "version": "0.69.1",
      "ext": "7z",
      "path": ".",
      "url": "https://gitlab.com/spider-explorer/spider-software-2/-/raw/main/.software/nu-0.69.1.7z"
    },
    {
      "name": "sliksvn",
      "version": "1.14.2",
      "ext": "7z",
      "path": "/bin",
      "url": "https://gitlab.com/spider-explorer/spider-software-2/-/raw/main/.software/sliksvn-1.14.2.7z"
    },
    {
      "name": "gh",
      "version": "2.16.1",
      "ext": "7z",
      "path": "/bin",
      "url": "https://gitlab.com/spider-explorer/spider-software-2/-/raw/main/.software/gh-2.16.1.7z"
    },
    {
      "name": "googlechrome",
      "version": "106.0.5249.91",
      "ext": "7z",
      "path": ".",
      "url": "https://gitlab.com/spider-explorer/spider-software-2/-/raw/main/.software/googlechrome-106.0.5249.91.7z"
    },
    {
      "name": "wixtoolset",
      "version": "3.11.2",
      "ext": "7z",
      "path": ".",
      "url": "https://gitlab.com/spider-explorer/spider-software-2/-/raw/main/.software/wixtoolset-3.11.2.7z"
    },
    {
      "name": "uncrustify",
      "version": "0.75.1",
      "ext": "7z",
      "path": "/bin",
      "url": "https://gitlab.com/spider-explorer/spider-software-2/-/raw/main/.software/uncrustify-0.75.1.7z"
    },
    {
      "name": "geany",
      "version": "1.38",
      "ext": "7z",
      "path": "/bin",
      "url": "https://gitlab.com/spider-explorer/spider-software-2/-/raw/main/.software/geany-1.38.7z"
    },
    {
      "name": "deno",
      "version": "1.26.0",
      "ext": "7z",
      "path": ".",
      "url": "https://gitlab.com/spider-explorer/spider-software-2/-/raw/main/.software/deno-1.26.0.7z"
    },
    {
      "name": "vscode",
      "version": "1.71.2",
      "ext": "7z",
      "path": "/bin;.",
      "url": "https://gitlab.com/spider-explorer/spider-software-2/-/raw/main/.software/vscode-1.71.2.7z"
    },
    {
      "name": "file",
      "version": "5.38",
      "ext": "7z",
      "path": ".",
      "url": "https://gitlab.com/spider-explorer/spider-software-2/-/raw/main/.software/file-5.38.7z"
    },
    {
      "name": "astyle",
      "version": "3.1",
      "ext": "7z",
      "path": "/bin",
      "url": "https://gitlab.com/spider-explorer/spider-software-2/-/raw/main/.software/astyle-3.1.7z"
    },
    {
      "name": "7zip",
      "version": "22.01",
      "ext": "7z",
      "path": ".",
      "url": "https://gitlab.com/spider-explorer/spider-software-2/-/raw/main/.software/7zip-22.01.7z"
    },
    {
      "name": "nyagos",
      "version": "4.4.13_0",
      "ext": "7z",
      "path": ".",
      "url": "https://gitlab.com/spider-explorer/spider-software-2/-/raw/main/.software/nyagos-4.4.13_0.7z"
    },
    {
      "name": "jq",
      "version": "1.6",
      "ext": "7z",
      "path": ".",
      "url": "https://gitlab.com/spider-explorer/spider-software-2/-/raw/main/.software/jq-1.6.7z"
    },
    {
      "name": "windows-terminal",
      "version": "1.15.2524.0",
      "ext": "7z",
      "path": ".",
      "url": "https://gitlab.com/spider-explorer/spider-software-2/-/raw/main/.software/windows-terminal-1.15.2524.0.7z"
    },
    {
      "name": "sqlitestudio",
      "version": "3.3.3",
      "ext": "7z",
      "path": ".",
      "url": "https://gitlab.com/spider-explorer/spider-software-2/-/raw/main/.software/sqlitestudio-3.3.3.7z"
    },
    {
      "name": "rapidee",
      "version": "9.2.937",
      "ext": "7z",
      "path": ".",
      "url": "https://gitlab.com/spider-explorer/spider-software-2/-/raw/main/.software/rapidee-9.2.937.7z"
    },
    {
      "name": "notepad3",
      "version": "5.21.1129.1",
      "ext": "7z",
      "path": ".",
      "url": "https://gitlab.com/spider-explorer/spider-software-2/-/raw/main/.software/notepad3-5.21.1129.1.7z"
    },
    {
      "name": "smartgit",
      "version": "21.2.4",
      "ext": "7z",
      "path": "/bin",
      "url": "https://gitlab.com/spider-explorer/spider-software-2/-/raw/main/.software/smartgit-21.2.4.7z"
    },
    {
      "name": "wget",
      "version": "1.21.3",
      "ext": "7z",
      "path": ".",
      "url": "https://gitlab.com/spider-explorer/spider-software-2/-/raw/main/.software/wget-1.21.3.7z"
    },
    {
      "name": "curl",
      "version": "7.85.0_5",
      "ext": "7z",
      "path": "/bin",
      "url": "https://gitlab.com/spider-explorer/spider-software-2/-/raw/main/.software/curl-7.85.0_5.7z"
    },
    {
      "name": "qownnotes",
      "version": "22.9.2",
      "ext": "7z",
      "path": ".",
      "url": "https://gitlab.com/spider-explorer/spider-software-2/-/raw/main/.software/qownnotes-22.9.2.7z"
    },
    {
      "name": "sed",
      "version": "4.8",
      "ext": "7z",
      "path": ".",
      "url": "https://gitlab.com/spider-explorer/spider-software-2/-/raw/main/.software/sed-4.8.7z"
    },
    {
      "version": "20220904",
      "ext": "7z",
      "path": "/mingw64/bin;/usr/bin;.",
      "url": "https://gitlab.com/spider-explorer/spider-software-2/-/raw/main/msys2-20220904.7z",
      "name": "msys2"
    },
    {
      "version": "1.1.1",
      "ext": "zip",
      "path": ".",
      "url": "https://gitlab.com/spider-explorer/spider-software-2/-/raw/main/ClickOnce-1.1.1.zip",
      "name": "ClickOnce"
    },
    {
      "name": "libreoffice",
      "version": "7.4.2.1",
      "ext": "7z",
      "path": "/LibreOffice/program",
      "url": "https://gitlab.com/spider-explorer/spider-software-2/-/raw/main/.software/libreoffice-7.4.2.1.7z"
    },
    {
      "version": "3.10.5",
      "ext": "7z",
      "path": "/Scripts;.",
      "url": "https://gitlab.com/spider-explorer/spider-software/-/raw/main/.software/winpython/winpython-3.10.5.7z",
      "name": "winpython"
    },
    {
      "name": "git",
      "version": "2.37.3.windows.1",
      "ext": "7z",
      "path": "/cmd",
      "url": "https://gitlab.com/spider-explorer/spider-software-2/-/raw/main/.software/git-2.37.3.windows.1.7z"
    }
  ]
}
