{
  "version": "?",
  "software": {
    "busybox": {
      "version": "tilde64",
      "ext": "7z",
      "path": ".",
      "url": "https://gitlab.com/spider-explorer/spider-software/-/raw/main/.software/busybox/busybox-tilde64.7z"
    },
    "SimpleBrowser": {
      "version": "v2022.07.26.23.20.00",
      "ext": "zip",
      "path": ".",
      "url": "https://github.com/spider-explorer/spiderbrowser/releases/download/v2022.07.26.19.39.00/SimpleBrowser-v2022.07.26.23.20.00.zip"
    },
    "SpiderBrowser": {
      "version": "v2022.07.26.23.20.00",
      "ext": "zip",
      "path": ".",
      "url": "https://github.com/spider-explorer/spiderbrowser/releases/download/v2022.07.26.19.39.00/SpiderBrowser-v2022.07.26.23.20.00.zip"
    },
    "AirExplorer": {
      "version": "4.6.2",
      "ext": "7z",
      "path": ".",
      "url": "https://gitlab.com/spider-explorer/spider-software/-/raw/main/.software/AirExplorer/AirExplorer-4.6.2.7z"
    },
    "Everything": {
      "version": "1.4.1.1015.x64",
      "ext": "zip",
      "path": ".",
      "url": "https://gitlab.com/spider-explorer/spider-software/-/raw/main/.software/Everything/Everything-1.4.1.1015.x64.zip"
    },
    "FileSum": {
      "version": "3.01",
      "ext": "zip",
      "path": ".",
      "url": "https://gitlab.com/spider-explorer/spider-software/-/raw/main/.software/FileSum/FileSum-3.01.zip"
    },
    "FolderSizePortable": {
      "version": "4.9.5.0",
      "ext": "zip",
      "path": ".",
      "url": "https://gitlab.com/spider-explorer/spider-software/-/raw/main/.software/FolderSizePortable/FolderSizePortable-4.9.5.0.zip"
    },
    "bluegriffon": {
      "version": "3.1",
      "ext": "7z",
      "path": ".",
      "url": "https://gitlab.com/spider-explorer/spider-software-2/-/raw/main/bluegriffon-3.1.7z"
    },
    "ActiveTcl": {
      "version": "8.6.12",
      "ext": "7z",
      "path": "/bin",
      "url": "https://gitlab.com/spider-explorer/spider-software-2/-/raw/main/ActiveTcl-8.6.12.7z"
    },
    "mscript": {
      "version": "3.0",
      "ext": "7z",
      "path": ".",
      "url": "https://gitlab.com/spider-explorer/spider-software-2/-/raw/main/mscript-3.0.7z"
    },
    "PowerShell": {
      "version": "7.2.6-win-x64",
      "ext": "7z",
      "path": ".",
      "url": "https://gitlab.com/spider-explorer/spider-software-2/-/raw/main/PowerShell-7.2.6-win-x64.zip"
    },
    "msys2": {
      "version": "20220904",
      "ext": "7z",
      "path": "/mingw64/bin;/usr/bin;.",
      "url": "https://gitlab.com/spider-explorer/spider-software-2/-/raw/main/msys2-20220904.7z"
    },
    "grepwin": {
      "version": "2.0.11",
      "ext": "7z",
      "path": ".",
      "url": "https://gitlab.com/spider-explorer/spider-software-2/-/raw/main/.software/grepwin-2.0.11.7z"
    },
    "idea": {
      "version": "2022.2.2-222.4167.29",
      "ext": "7z",
      "path": "/IDE/bin",
      "url": "https://gitlab.com/spider-explorer/spider-software-2/-/raw/main/.software/idea-2022.2.2-222.4167.29.7z"
    },
    "rider": {
      "version": "2022.2.3-222.4167.23",
      "ext": "7z",
      "path": "/IDE/bin",
      "url": "https://gitlab.com/spider-explorer/spider-software-2/-/raw/main/.software/rider-2022.2.3-222.4167.23.7z"
    },
    "dotnet-sdk": {
      "version": "6.0.401",
      "ext": "7z",
      "path": ".",
      "url": "https://gitlab.com/spider-explorer/spider-software-2/-/raw/main/.software/dotnet-sdk-6.0.401.7z"
    },
    "nuget": {
      "version": "6.3.0",
      "ext": "7z",
      "path": ".",
      "url": "https://gitlab.com/spider-explorer/spider-software-2/-/raw/main/.software/nuget-6.3.0.7z"
    },
    "ilmerge": {
      "version": "3.0.41",
      "ext": "7z",
      "path": ".",
      "url": "https://gitlab.com/spider-explorer/spider-software-2/-/raw/main/.software/ilmerge-3.0.41.7z"
    },
    "httrack": {
      "version": "3.49.2",
      "ext": "7z",
      "path": ".",
      "url": "https://gitlab.com/spider-explorer/spider-software-2/-/raw/main/.software/httrack-3.49.2.7z"
    },
    "sumatrapdf": {
      "version": "3.4.6",
      "ext": "7z",
      "path": ".",
      "url": "https://gitlab.com/spider-explorer/spider-software-2/-/raw/main/.software/sumatrapdf-3.4.6.7z"
    },
    "qt-creator": {
      "version": "8.0.1",
      "ext": "7z",
      "path": "/bin",
      "url": "https://gitlab.com/spider-explorer/spider-software-2/-/raw/main/.software/qt-creator-8.0.1.7z"
    },
    "libreoffice": {
      "version": "7.4.2.1",
      "ext": "7z",
      "path": "/LibreOffice/program",
      "url": "https://gitlab.com/spider-explorer/spider-software-2/-/raw/main/.software/libreoffice-7.4.2.1.7z"
    },
    "vim": {
      "version": "9.0",
      "ext": "7z",
      "path": ".",
      "url": "https://gitlab.com/spider-explorer/spider-software-2/-/raw/main/.software/vim-9.0.7z"
    },
    "dart": {
      "version": "2.18.2",
      "ext": "7z",
      "path": "/bin",
      "url": "https://gitlab.com/spider-explorer/spider-software-2/-/raw/main/.software/dart-2.18.2.7z"
    },
    "racket": {
      "version": "8.6",
      "ext": "7z",
      "path": ".",
      "url": "https://gitlab.com/spider-explorer/spider-software-2/-/raw/main/.software/racket-8.6.7z"
    },
    "zig": {
      "version": "0.9.1",
      "ext": "7z",
      "path": ".",
      "url": "https://gitlab.com/spider-explorer/spider-software-2/-/raw/main/.software/zig-0.9.1.7z"
    },
    "tidy": {
      "version": "5.8.0",
      "ext": "7z",
      "path": ".",
      "url": "https://gitlab.com/spider-explorer/spider-software-2/-/raw/main/.software/tidy-5.8.0.7z"
    },
    "xmllint": {
      "version": "2.9.3",
      "ext": "7z",
      "path": "/bin",
      "url": "https://gitlab.com/spider-explorer/spider-software-2/-/raw/main/.software/xmllint-2.9.3.7z"
    },
    "nodejs-lts": {
      "version": "16.17.1",
      "ext": "7z",
      "path": ".",
      "url": "https://gitlab.com/spider-explorer/spider-software-2/-/raw/main/.software/nodejs-lts-16.17.1.7z"
    },
    "zulu17-jdk": {
      "version": "17.36.17",
      "ext": "7z",
      "path": "/bin",
      "url": "https://gitlab.com/spider-explorer/spider-software-2/-/raw/main/.software/zulu17-jdk-17.36.17.7z"
    },
    "gradle": {
      "version": "7.5.1",
      "ext": "7z",
      "path": "/bin",
      "url": "https://gitlab.com/spider-explorer/spider-software-2/-/raw/main/.software/gradle-7.5.1.7z"
    },
    "nu": {
      "version": "0.69.1",
      "ext": "7z",
      "path": ".",
      "url": "https://gitlab.com/spider-explorer/spider-software-2/-/raw/main/.software/nu-0.69.1.7z"
    },
    "sliksvn": {
      "version": "1.14.2",
      "ext": "7z",
      "path": "/bin",
      "url": "https://gitlab.com/spider-explorer/spider-software-2/-/raw/main/.software/sliksvn-1.14.2.7z"
    },
    "gh": {
      "version": "2.16.1",
      "ext": "7z",
      "path": "/bin",
      "url": "https://gitlab.com/spider-explorer/spider-software-2/-/raw/main/.software/gh-2.16.1.7z"
    },
    "googlechrome": {
      "version": "106.0.5249.62",
      "ext": "7z",
      "path": ".",
      "url": "https://gitlab.com/spider-explorer/spider-software-2/-/raw/main/.software/googlechrome-106.0.5249.62.7z"
    },
    "wixtoolset": {
      "version": "3.11.2",
      "ext": "7z",
      "path": ".",
      "url": "https://gitlab.com/spider-explorer/spider-software-2/-/raw/main/.software/wixtoolset-3.11.2.7z"
    },
    "uncrustify": {
      "version": "0.75.1",
      "ext": "7z",
      "path": "/bin",
      "url": "https://gitlab.com/spider-explorer/spider-software-2/-/raw/main/.software/uncrustify-0.75.1.7z"
    },
    "geany": {
      "version": "1.38",
      "ext": "7z",
      "path": "/bin",
      "url": "https://gitlab.com/spider-explorer/spider-software-2/-/raw/main/.software/geany-1.38.7z"
    },
    "deno": {
      "version": "1.26.0",
      "ext": "7z",
      "path": ".",
      "url": "https://gitlab.com/spider-explorer/spider-software-2/-/raw/main/.software/deno-1.26.0.7z"
    },
    "vscode": {
      "version": "1.71.2",
      "ext": "7z",
      "path": "/bin;.",
      "url": "https://gitlab.com/spider-explorer/spider-software-2/-/raw/main/.software/vscode-1.71.2.7z"
    },
    "file": {
      "version": "5.38",
      "ext": "7z",
      "path": ".",
      "url": "https://gitlab.com/spider-explorer/spider-software-2/-/raw/main/.software/file-5.38.7z"
    },
    "astyle": {
      "version": "3.1",
      "ext": "7z",
      "path": "/bin",
      "url": "https://gitlab.com/spider-explorer/spider-software-2/-/raw/main/.software/astyle-3.1.7z"
    },
    "7zip": {
      "version": "22.01",
      "ext": "7z",
      "path": ".",
      "url": "https://gitlab.com/spider-explorer/spider-software-2/-/raw/main/.software/7zip-22.01.7z"
    },
    "nyagos": {
      "version": "4.4.13_0",
      "ext": "7z",
      "path": ".",
      "url": "https://gitlab.com/spider-explorer/spider-software-2/-/raw/main/.software/nyagos-4.4.13_0.7z"
    },
    "jq": {
      "version": "1.6",
      "ext": "7z",
      "path": ".",
      "url": "https://gitlab.com/spider-explorer/spider-software-2/-/raw/main/.software/jq-1.6.7z"
    },
    "windows-terminal": {
      "version": "1.15.2524.0",
      "ext": "7z",
      "path": ".",
      "url": "https://gitlab.com/spider-explorer/spider-software-2/-/raw/main/.software/windows-terminal-1.15.2524.0.7z"
    },
    "sqlitestudio": {
      "version": "3.3.3",
      "ext": "7z",
      "path": ".",
      "url": "https://gitlab.com/spider-explorer/spider-software-2/-/raw/main/.software/sqlitestudio-3.3.3.7z"
    },
    "rapidee": {
      "version": "9.2.937",
      "ext": "7z",
      "path": ".",
      "url": "https://gitlab.com/spider-explorer/spider-software-2/-/raw/main/.software/rapidee-9.2.937.7z"
    },
    "notepad3": {
      "version": "5.21.1129.1",
      "ext": "7z",
      "path": ".",
      "url": "https://gitlab.com/spider-explorer/spider-software-2/-/raw/main/.software/notepad3-5.21.1129.1.7z"
    },
    "smartgit": {
      "version": "21.2.4",
      "ext": "7z",
      "path": "/bin",
      "url": "https://gitlab.com/spider-explorer/spider-software-2/-/raw/main/.software/smartgit-21.2.4.7z"
    },
    "wget": {
      "version": "1.21.3",
      "ext": "7z",
      "path": ".",
      "url": "https://gitlab.com/spider-explorer/spider-software-2/-/raw/main/.software/wget-1.21.3.7z"
    },
    "curl": {
      "version": "7.85.0_5",
      "ext": "7z",
      "path": "/bin",
      "url": "https://gitlab.com/spider-explorer/spider-software-2/-/raw/main/.software/curl-7.85.0_5.7z"
    },
    "qownnotes": {
      "version": "22.9.2",
      "ext": "7z",
      "path": ".",
      "url": "https://gitlab.com/spider-explorer/spider-software-2/-/raw/main/.software/qownnotes-22.9.2.7z"
    },
    "sed": {
      "version": "4.8",
      "ext": "7z",
      "path": ".",
      "url": "https://gitlab.com/spider-explorer/spider-software-2/-/raw/main/.software/sed-4.8.7z"
    },
    "git": {
      "version": "2.37.3.windows.1",
      "ext": "7z",
      "path": "/cmd",
      "url": "https://gitlab.com/spider-explorer/spider-software-2/-/raw/main/.software/git-2.37.3.windows.1.7z"
    }
  }
}
